{
    "meta": {
        "pagination": {
            "total": 2006,
            "pages": 101,
            "page": 1,
            "limit": 20,
            "links": {
                "previous": null,
                "current": "https://gorest.co.in/public/v1/users?page=1",
                "next": "https://gorest.co.in/public/v1/users?page=2"
            }
        }
    },
    "data": [
        {
            "id": 59,
            "name": "John Smith",
            "email": "john.smith@gmail.com",
            "gender": "male",
            "status": "active"
        },
        {
            "id": 61,
            "name": "Helen Hollen",
            "email": "hellen.hollen@gmail.com",
            "gender": "female",
            "status": "inactive"
        }
    ]
}
